<svg xmlns="http://www.w3.org/2000/svg" xmlns:xlink="http://www.w3.org/1999/xlink" width="77" height="69" viewBox="0 0 77 69">
    <defs>
        <linearGradient id="z0aybgbuob" x1="1.933%" x2="100%" y1="50%" y2="50%">
            <stop offset="0%" stop-color="#40C6C7"/>
            <stop offset="100%" stop-color="#60E7E3"/>
        </linearGradient>
        <rect id="oqgdbygbja" width="77" height="69" x="0" y="0" rx="6"/>
    </defs>
    <g fill="none" fill-rule="evenodd">
        <g>
            <g transform="translate(-743 -3377) translate(743 3377)">
                <mask id="3hsnxx89ac" fill="#fff">
                    <use xlink:href="#oqgdbygbja"/>
                </mask>
                <use fill="url(#z0aybgbuob)" fill-rule="nonzero" xlink:href="#oqgdbygbja"/>
                <g fill="#FFF" mask="url(#3hsnxx89ac)">
                    <g>
                        <path d="M35.337 24.586v4.781H9.663v-5.375c0-.327-.267-.594-.594-.594H6.68v-1.796h31.643v1.796h-4.477v1.188h1.492zm2.238 9.107c0 1.729-1.407 3.136-3.136 3.136-1.73 0-3.137-1.407-3.137-3.136 0-1.73 1.408-3.137 3.137-3.137 1.73 0 3.136 1.407 3.136 3.137zm2.24 9.7v.152H29.062v-.152c0-2.964 2.412-5.375 5.376-5.375 2.963 0 5.375 2.41 5.375 5.375zm-11.346-2.731l-.135-.263c-.688-1.335-1.82-2.403-3.19-3.009l-.235-.104.205-.156c1.087-.829 1.71-2.082 1.71-3.437 0-1.062-.393-2.085-1.109-2.883l-.227-.254h5.965l-.228.254c-.717.797-1.11 1.82-1.11 2.883 0 1.355.622 2.608 1.71 3.437l.205.156-.236.104c-1.37.606-2.502 1.674-3.19 3.01l-.135.262zm-.594 2.883h-10.75v-.152c0-2.964 2.411-5.375 5.375-5.375s5.375 2.41 5.375 5.375v.152zM22.5 30.556c1.73 0 3.137 1.407 3.137 3.137 0 1.729-1.408 3.136-3.137 3.136-1.73 0-3.137-1.407-3.137-3.136 0-1.73 1.408-3.137 3.137-3.137zm-5.97 10.106l-.135-.263c-.687-1.335-1.82-2.403-3.19-3.009l-.235-.104.205-.156c1.088-.829 1.711-2.082 1.711-3.437 0-1.062-.394-2.086-1.11-2.883l-.228-.254h5.966l-.228.254c-.716.797-1.11 1.821-1.11 2.883 0 1.355.623 2.608 1.71 3.437l.205.156-.235.104c-1.37.606-2.502 1.674-3.19 3.01l-.135.262zm-.593 2.883H5.186v-.152c0-2.964 2.412-5.375 5.375-5.375 2.964 0 5.376 2.41 5.376 5.375v.152zm-8.513-9.852c0-1.73 1.408-3.137 3.137-3.137 1.73 0 3.137 1.407 3.137 3.137 0 1.729-1.408 3.136-3.137 3.136-1.73 0-3.137-1.407-3.137-3.136zm11.94-26.117c0-1.729 1.407-3.136 3.136-3.136 1.73 0 3.137 1.407 3.137 3.136 0 1.73-1.408 3.137-3.137 3.137-1.73 0-3.137-1.407-3.137-3.137zm2.542 6.122v6.716h-4.781v-4.63c0-.229-.134-.44-.342-.538-.208-.097-.457-.065-.632.082l-2.028 1.69c-.513.427-1.16.619-1.825.536-.664-.083-1.246-.426-1.64-.967L6.91 11.431l2.03-1.522 3.378 4.728c.094.133.24.222.402.244.158.024.324-.022.453-.125l2.504-2.003c.685-.55 1.546-.852 2.425-.852h8.797c.88 0 1.74.303 2.426.852l2.504 2.003c.128.103.294.147.453.125.162-.022.308-.111.402-.244L36.06 9.91l2.03 1.522-3.749 5.156c-.393.541-.974.884-1.639.967-.664.082-1.312-.109-1.825-.536l-2.028-1.69c-.176-.147-.424-.178-.632-.082-.208.098-.342.31-.342.538v4.63h-4.78v-6.716h-1.19zm-20.45 13.43V1.456h42.089V27.13h-7.02v-2.543h2.39c.328 0 .595-.266.595-.594v-2.984c0-.328-.267-.594-.594-.594h-9.853v-3.361l1.054.878c.758.631 1.753.925 2.732.802.978-.121 1.872-.648 2.452-1.446l4.095-5.63c.19-.261.134-.631-.124-.824l-2.985-2.239c-.129-.096-.289-.136-.448-.111-.156.024-.3.112-.392.242l-3.366 4.712-2.014-1.612c-.895-.717-2.021-1.112-3.168-1.112h-1.411l.227-.254c.716-.797 1.11-1.82 1.11-2.883 0-2.384-1.94-4.324-4.325-4.324-2.385 0-4.325 1.94-4.325 4.324 0 1.062.394 2.086 1.11 2.883l.227.254h-1.411c-1.148 0-2.273.395-3.168 1.112l-2.014 1.612-3.367-4.713c-.092-.13-.235-.218-.392-.242-.16-.023-.32.016-.448.112l-2.984 2.238c-.259.194-.314.563-.124.825l4.093 5.63c.581.796 1.476 1.324 2.454 1.446.98.122 1.975-.172 2.732-.803l1.054-.877v3.36H6.084c-.327 0-.594.267-.594.595v2.984c0 .328.267.594.594.594h2.391v2.543h-7.02zm42.683 1.19c.328 0 .594-.267.594-.595V.861c0-.328-.266-.594-.594-.594H.86C.533.267.267.533.267.861v26.862c0 .328.266.594.594.594h7.614v1.592l-.076.044c-1.334.774-2.163 2.207-2.163 3.74 0 1.355.624 2.608 1.711 3.437l.205.156-.235.104c-2.38 1.053-3.92 3.41-3.92 6.003v.746c0 .328.268.594.595.594h35.816c.327 0 .594-.266.594-.594v-.746c0-2.594-1.538-4.95-3.919-6.003l-.235-.104.205-.156c1.087-.829 1.71-2.082 1.71-3.437 0-1.533-.828-2.966-2.162-3.74l-.076-.044v-1.592h7.614z" transform="translate(16 12)"/>
                        <path d="M40.56 4.44L41.748 4.44 41.748 3.252 40.56 3.252zM37.575 4.44L38.763 4.44 38.763 3.252 37.575 3.252zM34.591 4.44L35.779 4.44 35.779 3.252 34.591 3.252zM30.86 24.586L32.049 24.586 32.049 23.398 30.86 23.398z" transform="translate(16 12)"/>
                    </g>
                </g>
            </g>
        </g>
    </g>
</svg>
